3.046875e-01
63
0	0.00390625	0.01	0.0389736	0.223876	0.0725537	-0.0608354
0	0.00390625	0.01	0.163076	0.407225	-0.00368547	-0.0254313
0	0.00390625	0.01	0.264082	0.326269	-0.0615449	-0.0838053
0	0.00390625	0.01	0.066815	0.0473296	0.00845965	0.0873808
0	0.00390625	0.01	0.453226	0.203565	-0.0949355	-0.0228073
0	0.00390625	0.01	0.455115	0.242209	0.00340793	0.0556794
0	0.00390625	0.01	0.0945798	0.117829	-0.0356558	-0.0189524
0	0.00390625	0.01	0.159359	0.235235	-0.0482192	0.016042
0	0.00390625	0.01	0.101093	0.15323	0.032525	0.0512109
0	0.00390625	0.01	0.0723176	0.184675	0.00771591	-0.0639355
0	0.00390625	0.01	0.137153	0.371945	-0.0911092	-0.0517426
0	0.00390625	0.01	0.355392	0.223111	0.0851678	-0.0266144
0	0.00390625	0.01	0.340297	0.176675	-0.0218212	-0.0254316
0	0.00390625	0.01	0.176442	0.428247	-0.0054961	0.00768701
0	0.00390625	0.01	0.519452	0.281813	0.0823314	-0.0248899
0	0.00390625	0.01	0.521136	0.129981	0.0723523	0.0279115
0	0.00390625	0.01	0.175739	0.0633445	0.0784303	-0.0294415
0	0.00390625	0.01	0.374137	0.313823	0.0337228	0.0817703
0	0.00390625	0.01	0.229992	0.317348	-0.045872	-0.0277308
0	0.00390625	0.01	0.265252	0.102376	-0.0927195	-0.0388559
0	0.00390625	0.01	0.0187583	0.436111	-0.0972934	-0.0415818
0	0.00390625	0.01	0.176632	0.494712	-0.0943642	0.0748604
0	0.00390625	0.01	0.117724	0.374622	0.0564874	-0.0269146
0	0.00390625	0.01	0.466854	0.166862	-0.0503992	-0.0186338
0	0.00390625	0.01	0.0436072	0.119484	-0.0847456	0.0660701
0	0.00390625	0.01	0.473883	0.222449	-0.00138345	-0.0303104
0	0.00390625	0.01	0.346198	0.441613	0.0776051	0.0236538
0	0.00390625	0.01	0.529384	0.185063	-0.0110795	0.0970841
0	0.00390625	0.01	0.392377	0.367329	0.0389184	-0.0474815
0	0.00390625	0.01	0.180153	0.021285	0.0872879	-0.0371444
0	0.00390625	0.01	0.454969	0.145486	-0.0306447	-0.0595327
0	0.00390625	0.01	0.490702	0.0557085	-0.0628703	0.0230683
0	0.00390625	0.01	0.277192	0.393167	0.0965087	-0.0435193
0	0.00390625	0.01	0.202024	0.484585	-0.0711884	0.0152426
0	0.00390625	0.01	0.468343	0.334072	-0.030776	-0.0833045
0	0.00390625	0.01	0.364398	0.193209	-0.029304	-0.0185384
0	0.00390625	0.01	0.131449	0.301262	-0.0764409	0.0267944
0	0.00390625	0.01	0.157522	0.213498	-0.0365654	0.00217935
0	0.00390625	0.01	0.0987365	0.257935	-0.0893849	0.0972267
0	0.00390625	0.01	0.164064	0.109012	0.0192759	-0.0527747
0	0.00390625	0.01	0.0150974	0.416007	-0.0627807	-0.0506765
0	0.00390625	0.01	0.117445	0.180014	0.0511703	0.0727659
0	0.00390625	0.01	0.515273	0.0331136	-0.00681492	0.0832894
0	0.00390625	0.01	0.372465	0.389701	0.0912169	0.0952274
0	0.00390625	0.01	0.0180209	0.474238	0.0414229	-0.0416525
0	0.00390625	0.01	0.0712013	0.237906	-0.042271	-0.0222482
0	0.00390625	0.01	0.255538	0.264631	-0.0619486	0.0809915
0	0.00390625	0.01	0.0981802	0.366458	0.0557687	-0.0364849
0	0.00390625	0.01	0.40075	0.237377	0.00512456	0.0811282
0	0.00390625	0.01	0.32543	0.423933	0.0751088	-0.0307608
0	0.00390625	0.01	0.15221	0.444433	0.0831631	-0.0560501
0	0.00390625	0.01	0.0609818	0.0673618	-0.00541499	0.0645734
0	0.00390625	0.01	0.157152	0.128297	0.049175	-0.0324164
0	0.00390625	0.01	0.294292	0.128916	-0.058074	0.0742081
0	0.00390625	0.01	0.495043	0.281316	0.0416396	0.030507
0	0.00390625	0.01	0.433822	0.403668	-0.0295044	0.0798629
0	0.00390625	0.01	0.388011	0.299175	-0.0199289	0.086353
0	0.00390625	0.01	0.473625	0.488863	0.0415137	0.0551169
0	0.00390625	0.01	0.385653	0.210501	-0.0632517	0.0558973
0	0.00390625	0.01	0.218258	0.353923	-0.00287034	0.0147177
0	0.00390625	0.01	0.368875	0.0311316	0.081136	-0.061871
0	0.00390625	0.01	0.499938	0.0182514	0.00949315	0.0297007
0	0.00390625	0.01	0.33652	0.487389	-0.0904459	-0.083239
