2.031250e-01
63
0	0.00390625	0.01	0.0316049	0.230054	0.0725537	-0.0608354
0	0.00390625	0.01	0.16345	0.409808	-0.00368547	-0.0254313
0	0.00390625	0.01	0.270333	0.334781	-0.0615449	-0.0838053
0	0.00390625	0.01	0.0659558	0.0384549	0.00845965	0.0873808
0	0.00390625	0.01	0.462867	0.205881	-0.0949355	-0.0228073
0	0.00390625	0.01	0.454768	0.236554	0.00340793	0.0556794
0	0.00390625	0.01	0.0982011	0.119754	-0.0356558	-0.0189524
0	0.00390625	0.01	0.164256	0.233606	-0.0482192	0.016042
0	0.00390625	0.01	0.0977902	0.148029	0.032525	0.0512109
0	0.00390625	0.01	0.071534	0.191169	0.00771591	-0.0639355
0	0.00390625	0.01	0.146406	0.3772	-0.0911092	-0.0517426
0	0.00390625	0.01	0.346742	0.225814	0.0851678	-0.0266144
0	0.00390625	0.01	0.342513	0.179258	-0.0218212	-0.0254316
0	0.00390625	0.01	0.177	0.427466	-0.0054961	0.00768701
0	0.00390625	0.01	0.51109	0.284341	0.0823314	-0.0248899
0	0.00390625	0.01	0.513787	0.127146	0.0723523	0.0279115
0	0.00390625	0.01	0.167774	0.0663347	0.0784303	-0.0294415
0	0.00390625	0.01	0.370712	0.305518	0.0337228	0.0817703
0	0.00390625	0.01	0.234651	0.320164	-0.045872	-0.0277308
0	0.00390625	0.01	0.274669	0.106322	-0.0927195	-0.0388559
0	0.00390625	0.01	0.0286396	0.440334	-0.0972934	-0.0415818
0	0.00390625	0.01	0.186216	0.487109	-0.0943642	0.0748604
0	0.00390625	0.01	0.111987	0.377356	0.0564874	-0.0269146
0	0.00390625	0.01	0.471972	0.168754	-0.0503992	-0.0186338
0	0.00390625	0.01	0.0522142	0.112774	-0.0847456	0.0660701
0	0.00390625	0.01	0.474023	0.225527	-0.00138345	-0.0303104
0	0.00390625	0.01	0.338317	0.43921	0.0776051	0.0236538
0	0.00390625	0.01	0.530509	0.175202	-0.0110795	0.0970841
0	0.00390625	0.01	0.388424	0.372152	0.0389184	-0.0474815
0	0.00390625	0.01	0.171288	0.0250575	0.0872879	-0.0371444
0	0.00390625	0.01	0.999964	0.0145762	-0.012785	0.0411115
0	0.00390625	0.01	0.458081	0.151532	-0.0306447	-0.0595327
0	0.00390625	0.01	0.497087	0.0533657	-0.0628703	0.0230683
0	0.00390625	0.01	0.26739	0.397587	0.0965087	-0.0435193
0	0.00390625	0.01	0.209254	0.483037	-0.0711884	0.0152426
0	0.00390625	0.01	0.471469	0.342533	-0.030776	-0.0833045
0	0.00390625	0.01	0.367375	0.195092	-0.029304	-0.0185384
0	0.00390625	0.01	0.139212	0.298541	-0.0764409	0.0267944
0	0.00390625	0.01	0.161236	0.213277	-0.0365654	0.00217935
0	0.00390625	0.01	0.107815	0.248061	-0.0893849	0.0972267
0	0.00390625	0.01	0.162434	0.113723	0.00763044	-0.029709
0	0.00390625	0.01	0.0214735	0.421154	-0.0627807	-0.0506765
0	0.00390625	0.01	0.112248	0.172624	0.0511703	0.0727659
0	0.00390625	0.01	0.518961	0.0267637	-0.0855771	0.0278421
0	0.00390625	0.01	0.363201	0.380029	0.0912169	0.0952274
0	0.00390625	0.01	0.0138138	0.478468	0.0414229	-0.0416525
0	0.00390625	0.01	0.0754945	0.240165	-0.042271	-0.0222482
0	0.00390625	0.01	0.261829	0.256405	-0.0619486	0.0809915
0	0.00390625	0.01	0.0925162	0.370164	0.0557687	-0.0364849
0	0.00390625	0.01	0.400229	0.229138	0.00512456	0.0811282
0	0.00390625	0.01	0.317801	0.427058	0.0751088	-0.0307608
0	0.00390625	0.01	0.143764	0.450126	0.0831631	-0.0560501
0	0.00390625	0.01	0.0615317	0.0608036	-0.00541499	0.0645734
0	0.00390625	0.01	0.15183	0.132238	0.0608204	-0.055482
0	0.00390625	0.01	0.300191	0.121379	-0.058074	0.0742081
0	0.00390625	0.01	0.490814	0.278218	0.0416396	0.030507
0	0.00390625	0.01	0.436819	0.395557	-0.0295044	0.0798629
0	0.00390625	0.01	0.390035	0.290404	-0.0199289	0.086353
0	0.00390625	0.01	0.469408	0.483265	0.0415137	0.0551169
0	0.00390625	0.01	0.392077	0.204824	-0.0632517	0.0558973
0	0.00390625	0.01	0.218549	0.352429	-0.00287034	0.0147177
0	0.00390625	0.01	0.360635	0.0374154	0.081136	-0.061871
0	0.00390625	0.01	0.495978	0.0131257	0.0882554	0.0851479
