6.015625e-01
63
0	0.00390625	0.01	0.060513	0.205815	0.0725537	-0.0608354
0	0.00390625	0.01	0.161982	0.399675	-0.00368547	-0.0254313
0	0.00390625	0.01	0.246954	0.303749	-0.0260311	-0.0104736
0	0.00390625	0.01	0.0700882	0.0710999	0.0115423	0.0785964
0	0.00390625	0.01	0.425042	0.196794	-0.0949355	-0.0228073
0	0.00390625	0.01	0.456126	0.258739	0.00340793	0.0556794
0	0.00390625	0.01	0.0839945	0.112202	-0.0356558	-0.0189524
0	0.00390625	0.01	0.145044	0.239998	-0.0482192	0.016042
0	0.00390625	0.01	0.110749	0.168433	0.032525	0.0512109
0	0.00390625	0.01	0.0746083	0.165694	0.00771591	-0.0639355
0	0.00390625	0.01	0.133779	0.353258	-0.0117297	-0.0629413
0	0.00390625	0.01	0.361456	0.221556	-0.00194928	0.00215205
0	0.00390625	0.01	0.333819	0.169125	-0.0218212	-0.0254316
0	0.00390625	0.01	0.185542	0.42361	0.0449149	-0.0248113
0	0.00390625	0.01	0.199023	0.0546041	0.0784303	-0.0294415
0	0.00390625	0.01	0.379825	0.342793	0.0189271	0.0978384
0	0.00390625	0.01	0.216374	0.309115	-0.045872	-0.0277308
0	0.00390625	0.01	0.237726	0.0908404	-0.0927195	-0.0388559
0	0.00390625	0.01	0.119122	0.374059	0.00676415	-0.00106764
0	0.00390625	0.01	0.451891	0.16133	-0.0503992	-0.0186338
0	0.00390625	0.01	0.0184484	0.139099	-0.0847456	0.0660701
0	0.00390625	0.01	0.473472	0.213451	-0.00138345	-0.0303104
0	0.00390625	0.01	0.369237	0.448635	0.0776051	0.0236538
0	0.00390625	0.01	0.526094	0.213884	-0.0110795	0.0970841
0	0.00390625	0.01	0.403931	0.353233	0.0389184	-0.0474815
0	0.00390625	0.01	0.206067	0.0102578	0.0872879	-0.0371444
0	0.00390625	0.01	0.445871	0.127812	-0.0306447	-0.0595327
0	0.00390625	0.01	0.472037	0.0625569	-0.0628703	0.0230683
0	0.00390625	0.01	0.305843	0.380247	0.0965087	-0.0435193
0	0.00390625	0.01	0.459207	0.309341	-0.030776	-0.0833045
0	0.00390625	0.01	0.355699	0.187706	-0.029304	-0.0185384
0	0.00390625	0.01	0.108755	0.309217	-0.0764409	0.0267944
0	0.00390625	0.01	0.147144	0.21457	0.00966991	0.0432739
0	0.00390625	0.01	0.0722003	0.286799	-0.0893849	0.0972267
0	0.00390625	0.01	0.169786	0.0933444	0.0192759	-0.0527747
0	0.00390625	0.01	0.132158	0.201192	0.00493496	0.0316714
0	0.00390625	0.01	0.51325	0.0578401	-0.00681492	0.0832894
0	0.00390625	0.01	0.399545	0.417971	0.0912169	0.0952274
0	0.00390625	0.01	0.0303183	0.461872	0.0414229	-0.0416525
0	0.00390625	0.01	0.0586521	0.231301	-0.042271	-0.0222482
0	0.00390625	0.01	0.236004	0.286315	-0.0974624	0.00765972
0	0.00390625	0.01	0.106434	0.351526	0.0261125	-0.0511332
0	0.00390625	0.01	0.402271	0.261462	0.00512456	0.0811282
0	0.00390625	0.01	0.347728	0.414801	0.0751088	-0.0307608
0	0.00390625	0.01	0.166167	0.434712	0.0327521	-0.0235518
0	0.00390625	0.01	0.0586124	0.0887029	-0.00849761	0.0733579
0	0.00390625	0.01	0.171751	0.118673	0.049175	-0.0324164
0	0.00390625	0.01	0.277052	0.150946	-0.058074	0.0742081
0	0.00390625	0.01	0.507405	0.290373	0.0416396	0.030507
0	0.00390625	0.01	0.425063	0.427377	-0.0295044	0.0798629
0	0.00390625	0.01	0.386418	0.320116	-0.0051332	0.0702849
0	0.00390625	0.01	0.386095	0.220749	0.0238654	0.0271309
0	0.00390625	0.01	0.217406	0.358293	-0.00287034	0.0147177
0	0.00390625	0.01	0.3931	0.0172524	0.082343	-0.0226031
0	0.00390625	0.01	0.502756	0.0270687	0.00949315	0.0297007
0	0.00390625	0.01	0.514624	0.415526	-0.071422	-0.0258863
0	0.00390625	0.01	0.309669	0.462677	-0.0904459	-0.083239
0	0.00390625	0.01	0.18089	0.48911	-0.0711884	0.0152426
0	0.00390625	0.01	0.0711604	0.019253	-0.0272373	0.099852
0	0.00390625	0.01	0.0257272	0.500804	-0.0779625	-0.0222822
0	0.00390625	0.01	0.269981	0.504963	0.00979359	-0.0541427
0	0.00390625	0.01	0.148618	0.516936	-0.0943642	0.0748604
0	0.00390625	0.01	0.485949	0.505226	0.0415137	0.0551169
